{
  "name": "locp-cassandra",
  "version": "1.9.1",
  "author": "locp",
  "summary": "Installs Cassandra, DataStax Agent & OpsCenter on RHEL/Ubuntu/Debian.",
  "license": "Apache-2.0",
  "source": "https://github.com/locp/cassandra",
  "project_page": "http://locp.github.io/cassandra",
  "issues_url": "https://github.com/locp/cassandra/issues",
  "tags": [
    "cassandra",
    "cluster",
    "database",
    "datastax",
    "datastax-agent",
    "nosql",
    "opscenter"
  ],
  "requirements": [
    {
      "name": "pe",
      "version_requirement": ">= 3.7.0 < 2015.3.0"
    },
    {
      "name": "puppet",
      "version_requirement": ">= 3.0.0 < 5.0.0"
    }
  ],
  "dependencies": [
    {
      "name": "puppetlabs-apt",
      "version_requirement": ">= 2.0.0 < 3.0.0"
    },
    {
      "name": "puppetlabs-firewall",
      "version_requirement": ">= 1.0.0 < 2.0.0"
    },
    {
      "name": "puppetlabs-inifile",
      "version_requirement": ">= 1.0.0 < 2.0.0"
    },
    {
      "name": "puppetlabs-stdlib",
      "version_requirement": ">= 3.0.0 < 5.0.0"
    }
  ],
  "operatingsystem_support": [
    {
      "operatingsystem": "CentOS",
      "operatingsystemrelease": [
        "6",
        "7"
      ]
    },
    {
      "operatingsystem": "OracleLinux",
      "operatingsystemrelease": [
        "6",
        "7"
      ]
    },
    {
      "operatingsystem": "RedHat",
      "operatingsystemrelease": [
        "6",
        "7"
      ]
    },
    {
      "operatingsystem": "Debian",
      "operatingsystemrelease": [
        "7"
      ]
    },
    {
      "operatingsystem": "Scientific",
      "operatingsystemrelease": [
        "6",
        "7"
      ]
    },
    {
      "operatingsystem": "Ubuntu",
      "operatingsystemrelease": [
        "12.04",
        "14.04"
      ]
    }
  ]
}
